microc_tb.vcd
$date
	Fri Dec  4 11:31:00 2020
$end
$version
	Icarus Verilog
$end
$timescale
	10ps
$end
$scope module microc_tb $end
$var wire 1 ! z $end
$var wire 6 " opcode [5:0] $end
$var reg 1 # clk $end
$var reg 3 $ op [2:0] $end
$var reg 1 % reset $end
$var reg 1 & s_abs $end
$var reg 1 ' s_inc $end
$var reg 1 ( s_inm $end
$var reg 1 ) we3 $end
$var reg 1 * wez $end
$scope module microc $end
$var wire 1 # clk $end
$var wire 3 + op [2:0] $end
$var wire 1 % reset $end
$var wire 1 & s_abs $end
$var wire 1 ' s_inc $end
$var wire 1 ( s_inm $end
$var wire 1 ) we3 $end
$var wire 1 * wez $end
$var wire 1 , zalu $end
$var wire 1 ! z $end
$var wire 8 - wd3 [7:0] $end
$var wire 8 . variableBasura [7:0] $end
$var wire 10 / sum_out [9:0] $end
$var wire 8 0 rd2 [7:0] $end
$var wire 8 1 rd1 [7:0] $end
$var wire 10 2 pc_out [9:0] $end
$var wire 10 3 pc_in [9:0] $end
$var wire 6 4 opcode [5:0] $end
$var wire 10 5 mux_out [9:0] $end
$var wire 16 6 instruction [15:0] $end
$var wire 8 7 inm [7:0] $end
$var wire 8 8 alu_out [7:0] $end
$scope module PC $end
$var wire 1 # clk $end
$var wire 1 % reset $end
$var wire 10 9 d [9:0] $end
$var reg 10 : q [9:0] $end
$upscope $end
$scope module alu $end
$var wire 3 ; op [2:0] $end
$var wire 8 < y [7:0] $end
$var wire 1 , zero $end
$var wire 8 = b [7:0] $end
$var wire 8 > a [7:0] $end
$var reg 8 ? s [7:0] $end
$upscope $end
$scope module ffz $end
$var wire 1 * carga $end
$var wire 1 # clk $end
$var wire 1 , d $end
$var wire 1 % reset $end
$var reg 1 ! q $end
$upscope $end
$scope module memory $end
$var wire 10 @ a [9:0] $end
$var wire 1 # clk $end
$var wire 16 A rd [15:0] $end
$upscope $end
$scope module muxINM $end
$var wire 8 B d0 [7:0] $end
$var wire 8 C d1 [7:0] $end
$var wire 1 ( s $end
$var wire 8 D y [7:0] $end
$upscope $end
$scope module muxPC $end
$var wire 10 E d1 [9:0] $end
$var wire 1 & s $end
$var wire 10 F y [9:0] $end
$var wire 10 G d0 [9:0] $end
$upscope $end
$scope module muxSUM $end
$var wire 10 H d0 [9:0] $end
$var wire 10 I d1 [9:0] $end
$var wire 1 ' s $end
$var wire 10 J y [9:0] $end
$upscope $end
$scope module register $end
$var wire 1 # clk $end
$var wire 4 K ra1 [3:0] $end
$var wire 4 L ra2 [3:0] $end
$var wire 4 M wa3 [3:0] $end
$var wire 8 N wd3 [7:0] $end
$var wire 1 ) we3 $end
$var wire 8 O rd2 [7:0] $end
$var wire 8 P rd1 [7:0] $end
$upscope $end
$scope module sum $end
$var wire 10 Q a [9:0] $end
$var wire 10 R b [9:0] $end
$var wire 10 S y [9:0] $end
$upscope $end
$upscope $end
$upscope $end
$enddefinitions $end
#0
$dumpvars
bx S
b0x0001 R
b0 Q
b0 P
b0 O
bx N
b1 M
b1 L
b0 K
b0x0001 J
b1 I
b10001 H
bx G
bx F
b10001 E
bx D
b1 C
bx B
b1000000010001 A
b0 @
bx ?
b0 >
b0 =
bx <
bx ;
b0 :
bx 9
bx 8
b1 7
b1000000010001 6
b0x0001 5
b100 4
bx 3
b0 2
b0 1
b0 0
bx /
b1 .
bx -
x,
bx +
x*
x)
x(
x'
x&
1%
bx $
1#
b100 "
0!
$end
#1000
0%
#2000
1,
b1 3
b1 9
b1 F
b0 8
b0 <
b0 ?
b0 B
b1 -
b1 D
b1 N
b1 /
b1 G
b1 S
b1 5
b1 J
b1 R
b0 $
b0 +
b0 ;
0*
1)
1(
1'
0&
0#
#4000
b10 L
b10 -
b10 D
b10 N
b10 M
b10 .
b10 7
b10 C
b100010 H
b100010 E
b10 3
b10 9
b10 F
b0 0
b0 =
b0 O
b1000000100010 6
b1000000100010 A
b10 /
b10 G
b10 S
b1 2
b1 :
b1 @
b1 Q
1#
#6000
0#
#8000
b11 K
b0 L
b110000 -
b110000 D
b110000 N
b11 M
b110000 .
b110000 7
b110000 C
b1100 "
b1100 4
b1100000011 H
b1100000011 E
b11 3
b11 9
b11 F
b0 0
b0 =
b0 O
b11001100000011 6
b11001100000011 A
b11 /
b11 G
b11 S
b10 2
b10 :
b10 @
b10 Q
1#
#10000
b0 -
b0 D
b0 N
0#
b100 $
b100 +
b100 ;
1*
0(
#12000
b100 K
b101 M
b1000000 .
b1000000 7
b1000000 C
b1 "
b1 4
b101 H
b101 E
b100 3
b100 9
b100 F
1!
b10000000101 6
b10000000101 A
b100 /
b100 G
b100 S
b11 2
b11 :
b11 @
b11 Q
1#
#14000
b1000 /
b1000 G
b1000 S
b101 5
b101 J
b101 R
b101 3
b101 9
b101 F
0#
b0 $
b0 +
b0 ;
0*
0)
0'
1&
#16000
b1 0
b1 =
b1 O
b11 K
b1 L
b1100010011 5
b1100010011 J
b1100010011 R
b1100010011 3
b1100010011 9
b1100010011 F
b11 M
b110001 .
b110001 7
b110001 C
b100 "
b100 4
b1100010011 H
b1100010011 E
b1001100010011 6
b1001100010011 A
b1100011000 /
b1100011000 G
b1100011000 S
b101 2
b101 :
b101 @
b101 Q
1#
#18000
0,
b1 -
b1 D
b1 N
b1 8
b1 <
b1 ?
b1 B
b110 /
b110 G
b110 S
b1 5
b1 J
b1 R
b110 3
b110 9
b110 F
0#
b10 $
b10 +
b10 ;
1*
1)
1'
0&
#20000
b11 -
b11 D
b11 N
b10 K
b11 8
b11 <
b11 ?
b11 B
b10 M
b100001 .
b100001 7
b100001 C
b1000 "
b1000 4
b1000010010 H
b1000010010 E
b111 3
b111 9
b111 F
b10 1
b10 >
b10 P
0!
b10001000010010 6
b10001000010010 A
b111 /
b111 G
b111 S
b110 2
b110 :
b110 @
b110 Q
1#
#22000
b1 -
b1 D
b1 N
b1 8
b1 <
b1 ?
b1 B
0#
b11 $
b11 +
b11 ;
#24000
b0 0
b0 =
b0 O
1,
b0 -
b0 D
b0 N
b1100 K
b0 L
b0 8
b0 <
b0 ?
b0 B
b100 M
b11000000 .
b11000000 7
b11000000 C
b11 "
b11 4
b100 H
b100 E
b1000 3
b1000 9
b1000 F
b0 1
b0 >
b0 P
b110000000100 6
b110000000100 A
b1000 /
b1000 G
b1000 S
b111 2
b111 :
b111 @
b111 Q
1#
#26000
0#
#28000
b1011 K
b1111 L
b1101 M
b10111111 .
b10111111 7
b10111111 C
b10 "
b10 4
b1111111101 H
b1111111101 E
b1001 3
b1001 9
b1001 F
1!
b101111111101 6
b101111111101 A
b1001 /
b1001 G
b1001 S
b1000 2
b1000 :
b1000 @
b1000 Q
1#
#30000
b101 3
b101 9
b101 F
b101 /
b101 G
b101 S
b1111111101 5
b1111111101 J
b1111111101 R
0#
b0 $
b0 +
b0 ;
0*
0)
0'
#32000
0,
b1 -
b1 D
b1 N
b1 8
b1 <
b1 ?
b1 B
b1 1
b1 >
b1 P
b1 0
b1 =
b1 O
b11 K
b1 L
b1100010011 5
b1100010011 J
b1100010011 R
b11 M
b110001 .
b110001 7
b110001 C
b100 "
b100 4
b1100010011 H
b1100010011 E
b1100011000 3
b1100011000 9
b1100011000 F
b1001100010011 6
b1001100010011 A
b1100011000 /
b1100011000 G
b1100011000 S
b101 2
b101 :
b101 @
b101 Q
1#
#34000
b10 -
b10 D
b10 N
b110 3
b110 9
b110 F
b10 8
b10 <
b10 ?
b10 B
b110 /
b110 G
b110 S
b1 5
b1 J
b1 R
0#
b10 $
b10 +
b10 ;
1*
1)
1'
#36000
b10 -
b10 D
b10 N
b10 K
b10 8
b10 <
b10 ?
b10 B
b10 M
b100001 .
b100001 7
b100001 C
b1000 "
b1000 4
b1000010010 H
b1000010010 E
b111 3
b111 9
b111 F
b1 1
b1 >
b1 P
0!
b10001000010010 6
b10001000010010 A
b111 /
b111 G
b111 S
b110 2
b110 :
b110 @
b110 Q
1#
#38000
1,
b0 -
b0 D
b0 N
b0 8
b0 <
b0 ?
b0 B
0#
b11 $
b11 +
b11 ;
#40000
b0 0
b0 =
b0 O
1,
b0 -
b0 D
b0 N
b1100 K
b0 L
b0 8
b0 <
b0 ?
b0 B
b100 M
b11000000 .
b11000000 7
b11000000 C
b11 "
b11 4
b100 H
b100 E
b1000 3
b1000 9
b1000 F
b0 1
b0 >
b0 P
b110000000100 6
b110000000100 A
b1000 /
b1000 G
b1000 S
b111 2
b111 :
b111 @
b111 Q
1!
1#
#42000
b1011 3
b1011 9
b1011 F
b1011 /
b1011 G
b1011 S
b100 5
b100 J
b100 R
0#
b0 $
b0 +
b0 ;
0*
0)
0'
#44000
b0 K
b0 5
b0 J
b0 R
b0 M
b0 .
b0 7
b0 C
b0 "
b0 4
b0 H
b0 E
b1011 3
b1011 9
b1011 F
b0 6
b0 A
b1011 /
b1011 G
b1011 S
b1011 2
b1011 :
b1011 @
b1011 Q
1#
